<?xml version="1.0" encoding="UTF-8"?>
<svg width="137px" height="40px" viewBox="0 0 137 40" version="1.1" xmlns="http://www.w3.org/2000/svg" xmlns:xlink="http://www.w3.org/1999/xlink">
    <!-- Generator: sketchtool 51 (57462) - http://www.bohemiancoding.com/sketch -->
    <title>74B0C2D1-F987-4BF3-AC74-9ACCCA1A3031@1x</title>
    <desc>Created with sketchtool.</desc>
    <defs></defs>
    <g id="Page-1" stroke="none" stroke-width="1" fill="none" fill-rule="evenodd">
        <g id="5-min-Clean-up-page" transform="translate(-827.000000, -765.000000)">
            <g id="Logos" transform="translate(328.000000, 746.000000)">
                <g id="Zibel" transform="translate(499.000000, 19.000000)">
                    <polygon id="Fill-62" fill="#FEFEFE" points="26.9250971 33.0317279 42.2658 14.7162868 27.4797916 14.7162868 27.4797916 8.78246324 50.3428544 8.78246324 50.3428544 14.7162868 35.3014234 33.0317279 50.8569883 33.0317279 50.8569883 39.2225368 26.9250971 39.2225368"></polygon>
                    <path d="M84.2343632,28.7750368 C84.2343632,30.3522426 84.6838192,31.6294485 85.5805389,32.6033456 C86.479451,33.5761397 87.7390243,34.0647426 89.3625473,34.0647426 C90.9882628,34.0647426 92.2467397,33.5761397 93.1456519,32.6033456 C94.0423715,31.6294485 94.4907314,30.3522426 94.4907314,28.7750368 C94.4907314,27.2000368 94.0423715,25.9239338 93.1456519,24.9467279 C92.2467397,23.9739338 90.9882628,23.4853309 89.3625473,23.4853309 C87.7390243,23.4853309 86.479451,23.9739338 85.5805389,24.9467279 C84.6838192,25.9239338 84.2343632,27.2000368 84.2343632,28.7750368 Z M78.3366226,6.71731618 L84.7463046,6.71731618 L84.7463046,20.5625368 L84.8318109,20.5625368 C85.5728653,19.5610662 86.5211079,18.8496691 87.6754427,18.4338603 C88.8286812,18.0180515 90.0740033,17.8095956 91.4146979,17.8095956 C92.893518,17.8095956 94.2188653,18.1195221 95.3885473,18.7338603 C96.5549406,19.3515074 97.5481289,20.1743015 98.3593423,21.2077574 C99.1705556,22.2379044 99.7965054,23.4213603 100.24048,24.7548162 C100.68007,26.0860662 100.900413,27.4856985 100.900413,28.9470956 C100.900413,30.5243015 100.658146,31.9713603 100.175803,33.2904779 C99.6879782,34.6084926 98.9984469,35.7478309 98.1017272,36.7073897 C97.2050075,37.6691544 96.1274092,38.4147426 94.8766059,38.9441544 C93.6214176,39.4735662 92.2259113,39.7382721 90.6878946,39.7382721 C89.9468402,39.7382721 89.2474427,39.6390074 88.5951833,39.4382721 C87.9374427,39.2364338 87.3345138,38.9805515 86.7754343,38.6640074 C86.221836,38.3496691 85.7383967,37.9967279 85.3229238,37.6118015 C84.911836,37.2224632 84.5763883,36.8430515 84.3198695,36.4724632 L84.2343632,36.4724632 L84.2343632,39.2231985 L78.3366226,39.2231985 L78.3366226,6.71731618 Z" id="Fill-64" fill="#FEFEFE"></path>
                    <path d="M119.214323,26.4086765 C119.242825,25.3211765 118.886549,24.3902941 118.144398,23.6160294 C117.405536,22.8417647 116.44962,22.4546324 115.282131,22.4546324 C114.570674,22.4546324 113.941436,22.5704412 113.400992,22.7976471 C112.860549,23.0281618 112.397938,23.3226471 112.01316,23.68 C111.630574,24.0373529 111.330206,24.4531618 111.11644,24.9274265 C110.902674,25.3994853 110.782089,25.8936029 110.75249,26.4086765 L119.214323,26.4086765 Z M124.640683,35.6127206 C123.614608,36.9296324 122.319955,37.9476471 120.75234,38.6634559 C119.185821,39.3803676 117.561202,39.7388235 115.880674,39.7388235 C114.284557,39.7388235 112.782716,39.4818382 111.371863,38.9645588 C109.963202,38.4494853 108.735419,37.7116176 107.696189,36.7520588 C106.656959,35.7902941 105.838072,34.6366176 105.240624,33.2899265 C104.64208,31.9443382 104.343905,30.4377206 104.343905,28.7755882 C104.343905,27.1123529 104.64208,25.6079412 105.240624,24.26125 C105.838072,22.9123529 106.656959,21.7608824 107.696189,20.7991176 C108.735419,19.8384559 109.963202,19.1005882 111.371863,18.5844118 C112.782716,18.0693382 114.284557,17.8090441 115.880674,17.8090441 C117.361687,17.8090441 118.707863,18.0693382 119.919202,18.5844118 C121.129444,19.1005882 122.156616,19.8384559 122.995235,20.7991176 C123.836047,21.7608824 124.485018,22.9123529 124.939955,24.26125 C125.397085,25.6079412 125.624005,27.1123529 125.624005,28.7755882 L125.624005,30.7961765 L110.75249,30.7961765 C111.007913,32.0303676 111.5648,33.0097794 112.418767,33.7399265 C113.273829,34.4722794 114.328407,34.8384559 115.581403,34.8384559 C116.633787,34.8384559 117.525026,34.6013235 118.252926,34.1270588 C118.979729,33.6561029 119.612256,33.0472794 120.154892,32.2994853 L124.640683,35.6127206 Z" id="Fill-66" fill="#FEFEFE"></path>
                    <polygon id="Fill-68" fill="#FEFEFE" points="129.854812 39.2235294 136.264494 39.2235294 136.264494 6.71764706 129.854812 6.71764706"></polygon>
                    <path d="M41.7242603,3.80919118 C41.7242603,5.52536765 40.3397163,6.91948529 38.6339757,6.91948529 C36.9238502,6.91948529 35.5404025,5.52536765 35.5404025,3.80919118 C35.5404025,2.08970588 36.9238502,0.697794118 38.6339757,0.697794118 C40.3397163,0.697794118 41.7242603,2.08970588 41.7242603,3.80919118" id="Fill-70" fill="#FEFEFE"></path>
                    <polygon id="Fill-71" fill="#629640" points="64.3010962 39.5522059 72.8265105 39.5522059 72.8265105 11.7713235 64.3010962 11.7713235"></polygon>
                    <polygon id="Fill-72" fill="#7CB242" points="64.300877 11.7709926 64.300877 39.551875 55.7721741 39.551875 55.7721741 13.3239338"></polygon>
                    <path d="M62.5109456,8.81113971 L53.9011213,8.81113971 L53.9011213,11.7714338 L64.3010962,11.7714338 L64.3010962,10.6133456 L64.3010962,8.81113971 L64.3010962,7.01224265 C63.3101004,7.01224265 62.5109456,7.81738971 62.5109456,8.81113971" id="Fill-73" fill="#7CB242"></path>
                    <path d="M66.0887255,8.81113971 C66.0887255,7.81738971 65.2895707,7.01224265 64.3007674,7.01224265 L64.3007674,8.81113971 L64.3007674,10.6133456 L64.3007674,11.7714338 L74.6974536,11.7714338 L74.6974536,8.81113971 L66.0887255,8.81113971 Z" id="Fill-74" fill="#629640"></path>
                    <polygon id="Fill-75" fill="#77A440" points="64.300877 11.7709926 55.7721741 13.3239338 55.7721741 11.7709926"></polygon>
                    <polygon id="Fill-76" fill="#5F873C" points="64.300877 11.7709926 72.8262912 13.3239338 72.8262912 11.7709926"></polygon>
                    <path d="M13.7082385,20.393125 L9.47896653,20.393125 L8.75216318,25.8107721 L12.9836276,25.8107721 L13.7082385,20.393125 Z M4.09316736,29.6809926 L0.504096234,29.6809926 L0.504096234,25.8107721 L4.60730126,25.8107721 L5.33191213,20.393125 L1.74393724,20.393125 L1.74393724,16.5240074 L5.84604603,16.5240074 L7.04313389,7.88136029 L11.1879958,7.88136029 L9.99200418,16.5240074 L14.2223724,16.5240074 L15.4194603,7.88136029 L19.5643222,7.88136029 L18.3683305,16.5240074 L21.9563054,16.5240074 L21.9563054,20.393125 L17.8541967,20.393125 L17.1284895,25.8107721 L20.7186569,25.8107721 L20.7186569,29.6809926 L16.6143556,29.6809926 L15.4194603,38.3236397 L11.2735021,38.3236397 L12.4694937,29.6809926 L8.23802929,29.6809926 L7.04313389,38.3236397 L2.89717573,38.3236397 L4.09316736,29.6809926 Z" id="Fill-77" fill="#FEFEFE"></path>
                </g>
            </g>
        </g>
    </g>
</svg>